\begin{tabular}{lllllllll}
\toprule
   Process &        ID &                        \dmumu &                        \dmuh1 &                        \dmuh3 &                          \dee &                         \deh1 &                         \deh3 &                         \dmue \\
\midrule
  \ztautau &  42100000 &  \tc{0.0}{0.3}{0.0}{0}        &  \tc{0.6}{0.5}{0.3}{4}        &  \tc{0.0}{0.3}{0.0}{0}        &  \tc{0.0}{0.3}{0.0}{0}        &  \tc{0.8}{0.5}{0.3}{5}        &  \tc{0.2}{0.4}{0.1}{1}        &  \tc{0.2}{0.4}{0.1}{1}        \\
    \zmumu &  42112011 &  \tc{151.8}{7.1}{6.9}{905}    &  \tc{3.9}{1.0}{0.8}{23}       &  \tc{0.3}{0.4}{0.2}{2}        &  \tc{0.0}{0.3}{0.0}{0}        &  \tc{0.0}{0.3}{0.0}{0}        &  \tc{0.0}{0.3}{0.0}{0}        &  \tc{0.5}{0.5}{0.3}{3}        \\
      \zee &  42122011 &  \tc{0.0}{2.6}{0.0}{0}        &  \tc{0.0}{2.6}{0.0}{0}        &  \tc{0.0}{2.6}{0.0}{0}        &  \tc{1.4}{3.2}{1.2}{1}        &  \tc{2.8}{3.7}{1.8}{2}        &  \tc{0.0}{2.6}{0.0}{0}        &  \tc{0.0}{2.6}{0.0}{0}        \\
      \zee &  42122001 &  \tc{0.0}{0.6}{0.0}{0}        &  \tc{0.0}{0.6}{0.0}{0}        &  \tc{0.0}{0.6}{0.0}{0}        &  \tc{1.3}{1.0}{0.6}{4}        &  \tc{7.5}{1.9}{1.6}{23}       &  \tc{1.0}{1.0}{0.5}{3}        &  \tc{1.3}{1.0}{0.6}{4}        \\
      \zbb &  42150000 &  \tc{3.1}{0.7}{0.6}{26}       &  \tc{17.1}{1.6}{1.5}{145}     &  \tc{1.5}{0.6}{0.4}{13}       &  \tc{0.4}{0.3}{0.2}{3}        &  \tc{4.8}{0.9}{0.8}{41}       &  \tc{0.6}{0.4}{0.3}{5}        &  \tc{6.1}{1.0}{0.9}{52}       \\
  \wtaujet &  42300010 &  \tc{0.0}{5.2}{0.0}{0}        &  \tc{0.0}{5.2}{0.0}{0}        &  \tc{0.0}{5.2}{0.0}{0}        &  \tc{0.0}{5.2}{0.0}{0}        &  \tc{2.8}{6.5}{2.3}{1}        &  \tc{0.0}{5.2}{0.0}{0}        &  \tc{0.0}{5.2}{0.0}{0}        \\
   \wmujet &  42311011 &  \tc{1.2}{1.6}{0.8}{2}        &  \tc{3.1}{2.1}{1.3}{5}        &  \tc{0.0}{1.1}{0.0}{0}        &  \tc{0.0}{1.1}{0.0}{0}        &  \tc{0.0}{1.1}{0.0}{0}        &  \tc{0.0}{1.1}{0.0}{0}        &  \tc{0.6}{1.4}{0.5}{1}        \\
       \we &  42321000 &  \tc{0.0}{1.7}{0.0}{0}        &  \tc{0.0}{1.7}{0.0}{0}        &  \tc{0.0}{1.7}{0.0}{0}        &  \tc{0.0}{1.7}{0.0}{0}        &  \tc{5.7}{3.4}{2.3}{6}        &  \tc{0.0}{1.7}{0.0}{0}        &  \tc{0.0}{1.7}{0.0}{0}        \\
    \wejet &  42321010 &  \tc{0.0}{6.4}{0.0}{0}        &  \tc{0.0}{6.4}{0.0}{0}        &  \tc{0.0}{6.4}{0.0}{0}        &  \tc{0.0}{6.4}{0.0}{0}        &  \tc{55.4}{17.7}{13.8}{16}    &  \tc{0.0}{6.4}{0.0}{0}        &  \tc{0.0}{6.4}{0.0}{0}        \\
 \wmumujet &  42311012 &  \tc{0.0}{0.1}{0.0}{1}        &  \tc{0.0}{0.1}{0.0}{1}        &  \tc{0.0}{0.1}{0.0}{0}        &  \tc{0.0}{0.1}{0.0}{0}        &  \tc{0.0}{0.1}{0.0}{1}        &  \tc{0.0}{0.1}{0.0}{0}        &  \tc{0.0}{0.1}{0.0}{0}        \\
   \ccbare &  49021004 &  \tc{0.0}{0.9}{0.0}{0}        &  \tc{7.9}{2.6}{2.1}{17}       &  \tc{0.0}{0.9}{0.0}{0}        &  \tc{0.9}{1.2}{0.6}{2}        &  \tc{55.9}{8.3}{8.0}{120}     &  \tc{6.1}{2.3}{1.8}{13}       &  \tc{4.7}{2.1}{1.5}{10}       \\
  \ccbarmu &  49011004 &  \tc{12.4}{3.3}{2.8}{25}      &  \tc{565.7}{60.2}{60.0}{1142} &  \tc{67.9}{9.4}{9.0}{137}     &  \tc{0.0}{0.9}{0.0}{0}        &  \tc{2.0}{1.6}{1.0}{4}        &  \tc{0.5}{1.1}{0.4}{1}        &  \tc{51.5}{7.6}{7.3}{104}     \\
   \bbbare &  49021005 &  \tc{13.1}{8.9}{5.7}{5}       &  \tc{57.7}{15.2}{12.4}{22}    &  \tc{2.6}{6.0}{2.2}{1}        &  \tc{28.8}{11.6}{8.6}{11}     &  \tc{262.1}{30.4}{27.8}{100}  &  \tc{18.3}{9.9}{6.8}{7}       &  \tc{94.4}{18.8}{16.0}{36}    \\
  \bbbarmu &  49011005 &  \tc{298.7}{32.2}{29.7}{116}  &  \tc{1436}{81.4}{79.4}{558}   &  \tc{185.4}{25.4}{22.8}{72}   &  \tc{0.0}{4.7}{0.0}{0}        &  \tc{2.6}{5.9}{2.1}{1}        &  \tc{0.0}{4.7}{0.0}{0}        &  \tc{249.8}{29.4}{26.8}{97}   \\
    \ttbar &  41900006 &  \tc{0.1}{0.0}{0.0}{8}        &  \tc{0.7}{0.1}{0.1}{95}       &  \tc{0.1}{0.0}{0.0}{7}        &  \tc{0.0}{0.0}{0.0}{4}        &  \tc{0.3}{0.1}{0.1}{47}       &  \tc{0.0}{0.0}{0.0}{4}        &  \tc{0.1}{0.0}{0.0}{20}       \\
    \ttbar &  41900007 &  \tc{0.1}{0.0}{0.0}{30}       &  \tc{0.9}{0.1}{0.1}{258}      &  \tc{0.1}{0.0}{0.0}{38}       &  \tc{0.0}{0.0}{0.0}{7}        &  \tc{0.4}{0.0}{0.0}{130}      &  \tc{0.1}{0.0}{0.0}{23}       &  \tc{0.2}{0.0}{0.0}{51}       \\
    \ttbar &  41900010 &  \tc{1.0}{0.2}{0.2}{316}      &  \tc{6.9}{1.2}{1.2}{2212}     &  \tc{0.9}{0.2}{0.2}{297}      &  \tc{0.0}{0.0}{0.0}{3}        &  \tc{0.2}{0.0}{0.0}{65}       &  \tc{0.0}{0.0}{0.0}{9}        &  \tc{0.6}{0.1}{0.1}{207}      \\
     \wwll &  41922002 &  \tc{0.0}{0.0}{0.0}{0}        &  \tc{0.0}{0.0}{0.0}{0}        &  \tc{0.0}{0.0}{0.0}{0}        &  \tc{0.0}{0.0}{0.0}{0}        &  \tc{0.0}{0.0}{0.0}{1}        &  \tc{0.0}{0.0}{0.0}{1}        &  \tc{0.0}{0.0}{0.0}{0}        \\
     \wwlx &  42021000 &  \tc{0.0}{0.0}{0.0}{0}        &  \tc{0.0}{0.0}{0.0}{0}        &  \tc{0.0}{0.0}{0.0}{0}        &  \tc{0.0}{0.0}{0.0}{0}        &  \tc{0.1}{0.1}{0.0}{4}        &  \tc{0.0}{0.1}{0.0}{1}        &  \tc{0.0}{0.1}{0.0}{1}        \\
     \wzlx &  42021001 &  \tc{0.0}{0.0}{0.0}{1}        &  \tc{0.0}{0.0}{0.0}{0}        &  \tc{0.0}{0.0}{0.0}{0}        &  \tc{0.0}{0.0}{0.0}{0}        &  \tc{0.0}{0.0}{0.0}{6}        &  \tc{0.0}{0.0}{0.0}{2}        &  \tc{0.0}{0.0}{0.0}{0}        \\
\midrule
      Data &           &                            39 &                           292 &                            28 &                            29 &                           374 &                            30 &                           247 \\
\bottomrule
\end{tabular}
