\begin{tabular}{llllll}
\toprule
   Process &        ID &                         \hmue &                         \hmuh1 &                         \hmuh3 &                        \hmumu \\
\midrule
    \ttbar &  41900006 &  \tc{2.9}{0.2}{0.2}{393}      &   \tc{11.7}{0.5}{0.5}{1592}    &   \tc{6.5}{0.3}{0.3}{877}      &  \tc{3.5}{0.2}{0.2}{480}      \\
    \ttbar &  41900007 &  \tc{2.7}{0.1}{0.1}{811}      &   \tc{9.0}{0.3}{0.3}{2739}     &   \tc{5.5}{0.2}{0.2}{1680}     &  \tc{3.5}{0.2}{0.2}{1047}     \\
    \ttbar &  41900010 &  \tc{9.1}{1.6}{1.6}{2937}     &   \tc{54.0}{9.7}{9.7}{17421}   &   \tc{49.7}{9.0}{9.0}{16019}   &  \tc{33.7}{6.1}{6.1}{10857}   \\
     \wwll &  41922002 &  \tc{4.3}{0.2}{0.2}{961}      &   \tc{0.1}{0.0}{0.0}{13}       &   \tc{0.0}{0.0}{0.0}{5}        &  \tc{0.0}{0.0}{0.0}{6}        \\
     \wwlx &  42021000 &  \tc{5.1}{0.4}{0.4}{215}      &   \tc{6.8}{0.4}{0.4}{288}      &   \tc{2.7}{0.3}{0.3}{114}      &  \tc{0.5}{0.1}{0.1}{23}       \\
     \wzlx &  42021001 &  \tc{0.4}{0.1}{0.0}{64}       &   \tc{1.0}{0.1}{0.1}{182}      &   \tc{0.7}{0.1}{0.1}{115}      &  \tc{0.3}{0.0}{0.0}{57}       \\
  \ztautau &  42100000 &  \tc{349.2}{9.1}{9.0}{2256}   &   \tc{841.7}{16.9}{16.8}{5437} &   \tc{176.2}{6.0}{5.8}{1138}   &  \tc{191.0}{6.3}{6.1}{1234}   \\
    \zmumu &  42112011 &  \tc{114.9}{5.7}{5.5}{685}    &   \tc{569.3}{19.4}{19.3}{3394} &   \tc{251.6}{9.9}{9.8}{1500}   &  \tc{309.5}{11.7}{11.6}{1845} \\
   \zmujet &  42112022 &  \tc{95.8}{5.0}{4.9}{591}     &   \tc{184.7}{7.9}{7.8}{1139}   &   \tc{153.7}{6.9}{6.8}{948}    &  \tc{305.5}{11.6}{11.5}{1884} \\
      \zee &  42122011 &  \tc{8.4}{5.0}{3.3}{6}        &   \tc{0.0}{2.6}{0.0}{0}        &   \tc{0.0}{2.6}{0.0}{0}        &  \tc{0.0}{2.6}{0.0}{0}        \\
      \zbb &  42150000 &  \tc{23.2}{1.9}{1.8}{197}     &   \tc{67.6}{3.6}{3.5}{574}     &   \tc{30.3}{2.2}{2.1}{257}     &  \tc{24.4}{2.0}{1.9}{207}     \\
  \wtaujet &  42300010 &  \tc{17.0}{10.2}{6.8}{6}      &   \tc{192.4}{26.9}{24.0}{68}   &   \tc{36.8}{13.3}{10.1}{13}    &  \tc{11.3}{9.0}{5.4}{4}       \\
   \wmujet &  42311011 &  \tc{116.4}{9.8}{9.2}{190}    &   \tc{1324}{50.3}{50.0}{2162}  &   \tc{861.9}{35.6}{35.2}{1407} &  \tc{77.8}{7.9}{7.3}{127}     \\
 \wmumujet &  42311012 &  \tc{0.0}{0.1}{0.0}{0}        &   \tc{0.0}{0.1}{0.0}{0}        &   \tc{0.0}{0.1}{0.0}{0}        &  \tc{64.3}{1.5}{1.5}{2319}    \\
       \we &  42321000 &  \tc{1.9}{2.5}{1.2}{2}        &   \tc{0.0}{1.7}{0.0}{0}        &   \tc{0.0}{1.7}{0.0}{0}        &  \tc{0.0}{1.7}{0.0}{0}        \\
    \wejet &  42321010 &  \tc{6.9}{9.1}{4.5}{2}        &   \tc{0.0}{6.4}{0.0}{0}        &   \tc{0.0}{6.4}{0.0}{0}        &  \tc{0.0}{6.4}{0.0}{0}        \\
  \ccbarmu &  49011004 &  \tc{262.1}{29.1}{28.9}{529}  &  \tc{2045}{209.6}{209.5}{4129} &  \tc{1022}{106.0}{105.9}{2063} &  \tc{316.6}{34.6}{34.4}{639}  \\
  \bbbarmu &  49011005 &  \tc{1756}{91.5}{89.5}{682}   &  \tc{4269}{179.5}{177.9}{1658} &   \tc{2145}{105.5}{103.6}{833} &  \tc{2165}{106.2}{104.4}{841} \\
   \ccbare &  49021004 &  \tc{18.6}{4.0}{3.6}{40}      &   \tc{0.0}{0.9}{0.0}{0}        &   \tc{0.0}{0.9}{0.0}{0}        &  \tc{0.0}{0.9}{0.0}{0}        \\
   \bbbare &  49021005 &  \tc{283.1}{31.4}{28.8}{108}  &   \tc{0.0}{4.8}{0.0}{0}        &   \tc{0.0}{4.8}{0.0}{0}        &  \tc{0.0}{4.8}{0.0}{0}        \\
\midrule
      Data &           &                         10544 &                          95493 &                          22964 &                          4379 \\
\bottomrule
\end{tabular}
