\begin{tabular}{llllll}
\toprule
   Process &        ID &                         \hmue &                        \hmuh1 &                        \hmuh3 &                        \hmumu \\
\midrule
    \ttbar &  41900006 &  \tc{0.0}{0.0}{0.0}{0}        &  \tc{0.0}{0.0}{0.0}{0}        &  \tc{0.0}{0.0}{0.0}{0}        &  \tc{0.0}{0.0}{0.0}{0}        \\
    \ttbar &  41900007 &  \tc{0.0}{0.0}{0.0}{0}        &  \tc{0.0}{0.0}{0.0}{0}        &  \tc{0.0}{0.0}{0.0}{0}        &  \tc{0.0}{0.0}{0.0}{0}        \\
    \ttbar &  41900010 &  \tc{0.0}{0.0}{0.0}{0}        &  \tc{0.0}{0.0}{0.0}{0}        &  \tc{0.0}{0.0}{0.0}{0}        &  \tc{0.0}{0.0}{0.0}{0}        \\
     \wwll &  41922002 &  \tc{0.0}{0.0}{0.0}{0}        &  \tc{0.0}{0.0}{0.0}{0}        &  \tc{0.0}{0.0}{0.0}{0}        &  \tc{0.0}{0.0}{0.0}{0}        \\
     \wwlx &  42021000 &  \tc{0.0}{0.0}{0.0}{0}        &  \tc{0.0}{0.0}{0.0}{0}        &  \tc{0.0}{0.0}{0.0}{0}        &  \tc{0.0}{0.0}{0.0}{0}        \\
     \wzlx &  42021001 &  \tc{0.0}{0.0}{0.0}{0}        &  \tc{0.0}{0.0}{0.0}{0}        &  \tc{0.0}{0.0}{0.0}{0}        &  \tc{0.0}{0.0}{0.0}{0}        \\
  \ztautau &  42100000 &  \tc{2.6}{0.8}{0.6}{17}       &  \tc{3.6}{0.9}{0.7}{23}       &  \tc{0.8}{0.5}{0.3}{5}        &  \tc{0.0}{0.3}{0.0}{0}        \\
    \zmumu &  42112011 &  \tc{210.4}{8.7}{8.5}{1254}   &  \tc{430.3}{15.3}{15.2}{2565} &  \tc{118.9}{5.8}{5.7}{709}    &  \tc{25.8}{2.4}{2.2}{154}     \\
   \zmujet &  42112022 &  \tc{272.9}{10.6}{10.5}{1683} &  \tc{234.3}{9.4}{9.3}{1445}   &  \tc{86.6}{4.7}{4.6}{534}     &  \tc{37.9}{2.9}{2.7}{234}     \\
      \zee &  42122011 &  \tc{0.0}{2.6}{0.0}{0}        &  \tc{0.0}{2.6}{0.0}{0}        &  \tc{0.0}{2.6}{0.0}{0}        &  \tc{0.0}{2.6}{0.0}{0}        \\
      \zbb &  42150000 &  \tc{0.6}{0.4}{0.3}{5}        &  \tc{5.8}{1.0}{0.8}{49}       &  \tc{2.0}{0.6}{0.5}{17}       &  \tc{0.9}{0.5}{0.3}{8}        \\
  \wtaujet &  42300010 &  \tc{11.3}{9.0}{5.4}{4}       &  \tc{56.6}{15.8}{12.7}{20}    &  \tc{19.8}{10.7}{7.3}{7}      &  \tc{5.7}{7.5}{3.7}{2}        \\
   \wmujet &  42311011 &  \tc{423.3}{21.3}{20.8}{691}  &  \tc{879.0}{36.2}{35.8}{1435} &  \tc{372.4}{19.5}{19.0}{608}  &  \tc{31.2}{5.1}{4.5}{51}      \\
 \wmumujet &  42311012 &  \tc{0.0}{0.1}{0.0}{0}        &  \tc{0.0}{0.1}{0.0}{0}        &  \tc{0.0}{0.1}{0.0}{0}        &  \tc{15.8}{0.7}{0.7}{568}     \\
       \we &  42321000 &  \tc{0.9}{2.2}{0.8}{1}        &  \tc{0.0}{1.7}{0.0}{0}        &  \tc{0.0}{1.7}{0.0}{0}        &  \tc{0.0}{1.7}{0.0}{0}        \\
    \wejet &  42321010 &  \tc{0.0}{6.4}{0.0}{0}        &  \tc{0.0}{6.4}{0.0}{0}        &  \tc{0.0}{6.4}{0.0}{0}        &  \tc{0.0}{6.4}{0.0}{0}        \\
  \ccbarmu &  49011004 &  \tc{13.9}{3.4}{3.0}{28}      &  \tc{303.2}{33.2}{33.1}{612}  &  \tc{58.5}{8.4}{8.0}{118}     &  \tc{7.9}{2.6}{2.1}{16}       \\
  \bbbarmu &  49011005 &  \tc{95.3}{18.7}{15.9}{37}    &  \tc{481.5}{41.2}{38.7}{187}  &  \tc{239.5}{28.7}{26.1}{93}   &  \tc{126.2}{21.2}{18.5}{49}   \\
   \ccbare &  49021004 &  \tc{1.9}{1.5}{0.9}{4}        &  \tc{0.0}{0.9}{0.0}{0}        &  \tc{0.0}{0.9}{0.0}{0}        &  \tc{0.0}{0.9}{0.0}{0}        \\
   \bbbare &  49021005 &  \tc{13.1}{8.9}{5.7}{5}       &  \tc{0.0}{4.8}{0.0}{0}        &  \tc{0.0}{4.8}{0.0}{0}        &  \tc{0.0}{4.8}{0.0}{0}        \\
\midrule
      Data &           &                          3533 &                         22719 &                          4312 &                           785 \\
\bottomrule
\end{tabular}
