\begin{tabular}{llllll}
\toprule
   Process &        ID &                         \hmue &                        \hmuh1 &                        \hmuh3 &                        \hmumu \\
\midrule
    \ttbar &  41900006 &  \tc{0.0}{0.0}{0.0}{0}        &  \tc{0.0}{0.0}{0.0}{0}        &  \tc{0.0}{0.0}{0.0}{0}        &  \tc{0.0}{0.0}{0.0}{0}        \\
    \ttbar &  41900007 &  \tc{0.0}{0.0}{0.0}{0}        &  \tc{0.0}{0.0}{0.0}{0}        &  \tc{0.0}{0.0}{0.0}{0}        &  \tc{0.0}{0.0}{0.0}{0}        \\
    \ttbar &  41900010 &  \tc{0.0}{0.0}{0.0}{0}        &  \tc{0.0}{0.0}{0.0}{0}        &  \tc{0.0}{0.0}{0.0}{0}        &  \tc{0.0}{0.0}{0.0}{0}        \\
     \wwll &  41922002 &  \tc{0.0}{0.0}{0.0}{0}        &  \tc{0.0}{0.0}{0.0}{0}        &  \tc{0.0}{0.0}{0.0}{0}        &  \tc{0.0}{0.0}{0.0}{0}        \\
     \wwlx &  42021000 &  \tc{0.0}{0.0}{0.0}{0}        &  \tc{0.0}{0.0}{0.0}{0}        &  \tc{0.0}{0.0}{0.0}{0}        &  \tc{0.0}{0.0}{0.0}{0}        \\
     \wzlx &  42021001 &  \tc{0.0}{0.0}{0.0}{0}        &  \tc{0.0}{0.0}{0.0}{0}        &  \tc{0.0}{0.0}{0.0}{0}        &  \tc{0.0}{0.0}{0.0}{0}        \\
  \ztautau &  42100000 &  \tc{0.0}{0.3}{0.0}{0}        &  \tc{0.8}{0.5}{0.3}{5}        &  \tc{0.0}{0.3}{0.0}{0}        &  \tc{0.0}{0.3}{0.0}{0}        \\
    \zmumu &  42112011 &  \tc{10.9}{1.6}{1.4}{65}      &  \tc{208.7}{8.6}{8.5}{1244}   &  \tc{48.3}{3.3}{3.2}{288}     &  \tc{8.9}{1.4}{1.2}{53}       \\
   \zmujet &  42112022 &  \tc{17.8}{1.9}{1.8}{110}     &  \tc{171.9}{7.5}{7.4}{1060}   &  \tc{37.1}{2.8}{2.7}{229}     &  \tc{10.5}{1.5}{1.3}{65}      \\
      \zee &  42122011 &  \tc{0.0}{2.6}{0.0}{0}        &  \tc{0.0}{2.6}{0.0}{0}        &  \tc{0.0}{2.6}{0.0}{0}        &  \tc{0.0}{2.6}{0.0}{0}        \\
      \zbb &  42150000 &  \tc{0.0}{0.2}{0.0}{0}        &  \tc{0.7}{0.4}{0.3}{6}        &  \tc{0.4}{0.3}{0.2}{3}        &  \tc{0.1}{0.3}{0.1}{1}        \\
  \wtaujet &  42300010 &  \tc{0.0}{5.2}{0.0}{0}        &  \tc{25.5}{11.7}{8.4}{9}      &  \tc{8.5}{8.3}{4.6}{3}        &  \tc{2.8}{6.5}{2.3}{1}        \\
   \wmujet &  42311011 &  \tc{12.9}{3.5}{2.8}{21}      &  \tc{546.4}{25.4}{24.9}{892}  &  \tc{154.4}{11.4}{10.8}{252}  &  \tc{18.4}{4.0}{3.4}{30}      \\
 \wmumujet &  42311012 &  \tc{0.0}{0.1}{0.0}{0}        &  \tc{0.0}{0.1}{0.0}{0}        &  \tc{0.0}{0.1}{0.0}{0}        &  \tc{5.9}{0.4}{0.4}{213}      \\
       \we &  42321000 &  \tc{0.9}{2.2}{0.8}{1}        &  \tc{0.0}{1.7}{0.0}{0}        &  \tc{0.0}{1.7}{0.0}{0}        &  \tc{0.0}{1.7}{0.0}{0}        \\
    \wejet &  42321010 &  \tc{0.0}{6.4}{0.0}{0}        &  \tc{0.0}{6.4}{0.0}{0}        &  \tc{0.0}{6.4}{0.0}{0}        &  \tc{0.0}{6.4}{0.0}{0}        \\
  \ccbarmu &  49011004 &  \tc{1.0}{1.3}{0.6}{2}        &  \tc{24.3}{4.7}{4.2}{49}      &  \tc{9.4}{2.9}{2.3}{19}       &  \tc{2.0}{1.6}{1.0}{4}        \\
  \bbbarmu &  49011005 &  \tc{0.0}{4.7}{0.0}{0}        &  \tc{36.1}{12.5}{9.6}{14}     &  \tc{36.1}{12.5}{9.6}{14}     &  \tc{15.5}{9.2}{6.2}{6}       \\
   \ccbare &  49021004 &  \tc{0.5}{1.1}{0.4}{1}        &  \tc{0.0}{0.9}{0.0}{0}        &  \tc{0.0}{0.9}{0.0}{0}        &  \tc{0.0}{0.9}{0.0}{0}        \\
   \bbbare &  49021005 &  \tc{0.0}{4.8}{0.0}{0}        &  \tc{0.0}{4.8}{0.0}{0}        &  \tc{0.0}{4.8}{0.0}{0}        &  \tc{0.0}{4.8}{0.0}{0}        \\
\midrule
      Data &           &                           132 &                          3762 &                           952 &                           142 \\
\bottomrule
\end{tabular}
