\begin{tabular}{lllllllll}
\toprule
   Process &        ID &                         \dmumu &                         \dmuh1 &                        \dmuh3 &                          \dee &                         \deh1 &                         \deh3 &                         \dmue \\
\midrule
  \ztautau &  42100000 &   \tc{0.0}{0.3}{0.0}{0}        &   \tc{11.6}{1.5}{1.4}{75}      &  \tc{2.8}{0.8}{0.7}{18}       &  \tc{1.9}{0.7}{0.5}{12}       &  \tc{8.4}{1.3}{1.1}{54}       &  \tc{0.8}{0.5}{0.3}{5}        &  \tc{12.2}{1.6}{1.4}{79}      \\
    \zmumu &  42112011 &   \tc{40.9}{3.1}{2.9}{244}     &   \tc{474.4}{17.4}{17.3}{2828} &  \tc{28.9}{2.5}{2.4}{172}     &  \tc{0.0}{0.3}{0.0}{0}        &  \tc{0.3}{0.4}{0.2}{2}        &  \tc{0.0}{0.3}{0.0}{0}        &  \tc{139.4}{6.6}{6.5}{831}    \\
      \zee &  42122011 &   \tc{0.0}{2.6}{0.0}{0}        &   \tc{0.0}{2.6}{0.0}{0}        &  \tc{0.0}{2.6}{0.0}{0}        &  \tc{208.7}{19.7}{18.3}{149}  &  \tc{236.7}{21.0}{19.7}{169}  &  \tc{14.0}{6.0}{4.4}{10}      &  \tc{23.8}{7.3}{5.8}{17}      \\
      \zbb &  42150000 &   \tc{56.7}{3.3}{3.2}{482}     &   \tc{141.5}{6.3}{6.2}{1202}   &  \tc{11.9}{1.4}{1.2}{101}     &  \tc{8.5}{1.2}{1.0}{72}       &  \tc{39.9}{2.6}{2.5}{339}     &  \tc{2.8}{0.7}{0.6}{24}       &  \tc{47.6}{2.9}{2.8}{404}     \\
   \zmujet &  42112022 &   \tc{46.1}{3.2}{3.1}{284}     &   \tc{295.9}{11.8}{11.7}{1825} &  \tc{22.5}{2.2}{2.0}{139}     &  \tc{0.0}{0.3}{0.0}{0}        &  \tc{0.0}{0.3}{0.0}{0}        &  \tc{0.0}{0.3}{0.0}{0}        &  \tc{137.7}{6.6}{6.5}{849}    \\
  \wtaujet &  42300010 &   \tc{5.7}{7.5}{3.7}{2}        &   \tc{152.8}{24.3}{21.3}{54}   &  \tc{2.8}{6.5}{2.3}{1}        &  \tc{0.0}{5.2}{0.0}{0}        &  \tc{96.2}{19.7}{16.7}{34}    &  \tc{17.0}{10.2}{6.8}{6}      &  \tc{11.3}{9.0}{5.4}{4}       \\
   \wmujet &  42311011 &   \tc{39.8}{5.7}{5.1}{65}      &   \tc{1266}{50.6}{50.2}{2068}  &  \tc{107.8}{9.5}{8.9}{176}    &  \tc{0.0}{1.1}{0.0}{0}        &  \tc{0.6}{1.4}{0.5}{1}        &  \tc{0.0}{1.1}{0.0}{0}        &  \tc{118.2}{9.9}{9.4}{193}    \\
       \we &  42321000 &   \tc{0.0}{1.7}{0.0}{0}        &   \tc{0.0}{1.7}{0.0}{0}        &  \tc{0.0}{1.7}{0.0}{0}        &  \tc{48.3}{7.8}{6.8}{51}      &  \tc{695.2}{29.6}{28.8}{734}  &  \tc{61.6}{8.7}{7.7}{65}      &  \tc{20.8}{5.5}{4.4}{22}      \\
    \wejet &  42321010 &   \tc{0.0}{6.4}{0.0}{0}        &   \tc{3.5}{8.0}{2.9}{1}        &  \tc{0.0}{6.4}{0.0}{0}        &  \tc{48.4}{16.8}{12.9}{14}    &  \tc{865.0}{64.7}{61.5}{250}  &  \tc{62.3}{18.5}{14.7}{18}    &  \tc{55.4}{17.7}{13.8}{16}    \\
 \wmumujet &  42311012 &   \tc{20.7}{0.9}{0.8}{747}     &   \tc{0.0}{0.1}{0.0}{0}        &  \tc{0.0}{0.1}{0.0}{0}        &  \tc{0.0}{0.1}{0.0}{0}        &  \tc{0.0}{0.1}{0.0}{0}        &  \tc{0.0}{0.1}{0.0}{0}        &  \tc{0.0}{0.1}{0.0}{0}        \\
   \ccbare &  49021004 &   \tc{1.9}{1.5}{0.9}{4}        &   \tc{29.8}{5.3}{4.9}{64}      &  \tc{2.3}{1.6}{1.0}{5}        &  \tc{16.3}{3.7}{3.3}{35}      &  \tc{451.7}{51.5}{51.4}{969}  &  \tc{73.6}{10.2}{9.9}{158}    &  \tc{31.7}{5.5}{5.2}{68}      \\
  \ccbarmu &  49011004 &   \tc{65.4}{9.1}{8.8}{132}     &  \tc{3072}{315.6}{315.5}{6203} &  \tc{441.9}{47.5}{47.4}{892}  &  \tc{0.0}{0.9}{0.0}{0}        &  \tc{4.0}{2.0}{1.4}{8}        &  \tc{0.5}{1.1}{0.4}{1}        &  \tc{195.2}{22.4}{22.2}{394}  \\
   \bbbare &  49021005 &   \tc{49.8}{14.4}{11.5}{19}    &   \tc{170.4}{24.6}{21.9}{65}   &  \tc{21.0}{10.4}{7.3}{8}      &  \tc{427.2}{39.2}{36.7}{163}  &  \tc{2277}{113.8}{111.9}{869} &  \tc{351.2}{35.3}{32.8}{134}  &  \tc{760.1}{54.5}{52.2}{290}  \\
  \bbbarmu &  49011005 &  \tc{3154}{145.5}{143.8}{1225} &  \tc{9190}{362.1}{361.0}{3569} &  \tc{1295}{75.9}{73.8}{503}   &  \tc{0.0}{4.7}{0.0}{0}        &  \tc{30.9}{11.8}{8.9}{12}     &  \tc{0.0}{4.7}{0.0}{0}        &  \tc{1604}{87.9}{85.9}{623}   \\
    \ttbar &  41900006 &   \tc{3.1}{0.2}{0.2}{417}      &   \tc{14.6}{0.6}{0.6}{1981}    &  \tc{2.0}{0.1}{0.1}{274}      &  \tc{1.0}{0.1}{0.1}{129}      &  \tc{8.3}{0.4}{0.4}{1133}     &  \tc{0.9}{0.1}{0.1}{120}      &  \tc{2.8}{0.2}{0.2}{376}      \\
    \ttbar &  41900007 &   \tc{3.4}{0.2}{0.2}{1028}     &   \tc{15.3}{0.6}{0.6}{4639}    &  \tc{2.1}{0.1}{0.1}{635}      &  \tc{0.9}{0.1}{0.1}{268}      &  \tc{8.8}{0.4}{0.3}{2658}     &  \tc{1.3}{0.1}{0.1}{405}      &  \tc{2.9}{0.1}{0.1}{892}      \\
    \ttbar &  41900010 &   \tc{35.9}{6.5}{6.5}{11589}   &  \tc{131.6}{23.8}{23.8}{42456} &  \tc{19.0}{3.4}{3.4}{6140}    &  \tc{0.0}{0.0}{0.0}{10}       &  \tc{0.5}{0.1}{0.1}{163}      &  \tc{0.1}{0.0}{0.0}{20}       &  \tc{10.1}{1.8}{1.8}{3250}    \\
     \wwll &  41922002 &   \tc{0.0}{0.0}{0.0}{1}        &   \tc{0.1}{0.0}{0.0}{22}       &  \tc{0.0}{0.0}{0.0}{0}        &  \tc{0.0}{0.0}{0.0}{3}        &  \tc{0.1}{0.0}{0.0}{12}       &  \tc{0.0}{0.0}{0.0}{2}        &  \tc{0.2}{0.0}{0.0}{50}       \\
     \wwlx &  42021000 &   \tc{0.1}{0.1}{0.0}{3}        &   \tc{4.4}{0.4}{0.3}{187}      &  \tc{0.4}{0.1}{0.1}{18}       &  \tc{0.2}{0.1}{0.1}{7}        &  \tc{2.7}{0.3}{0.3}{116}      &  \tc{0.3}{0.1}{0.1}{13}       &  \tc{0.8}{0.2}{0.1}{33}       \\
     \wzlx &  42021001 &   \tc{0.2}{0.0}{0.0}{33}       &   \tc{1.4}{0.1}{0.1}{239}      &  \tc{0.2}{0.0}{0.0}{30}       &  \tc{0.1}{0.0}{0.0}{13}       &  \tc{0.9}{0.1}{0.1}{155}      &  \tc{0.1}{0.0}{0.0}{22}       &  \tc{0.7}{0.1}{0.1}{117}      \\
\midrule
      Data &           &                           6062 &                          73920 &                          6134 &                          4457 &                         49451 &                          3259 &                         20850 \\
\bottomrule
\end{tabular}
