\begin{tabular}{lllllllll}
\toprule
   Process &        ID &                        \dmumu &                        \dmuh1 &                        \dmuh3 &                          \dee &                         \deh1 &                         \deh3 &                         \dmue \\
\midrule
  \ztautau &  42100000 &  \tc{0.0}{0.3}{0.0}{0}        &  \tc{0.6}{0.5}{0.3}{4}        &  \tc{0.5}{0.5}{0.3}{3}        &  \tc{0.3}{0.4}{0.2}{2}        &  \tc{0.9}{0.6}{0.4}{6}        &  \tc{0.2}{0.4}{0.1}{1}        &  \tc{2.2}{0.7}{0.6}{14}       \\
    \zmumu &  42112011 &  \tc{4.9}{1.1}{0.9}{29}       &  \tc{26.0}{2.4}{2.2}{155}     &  \tc{1.5}{0.7}{0.5}{9}        &  \tc{0.0}{0.3}{0.0}{0}        &  \tc{0.2}{0.4}{0.1}{1}        &  \tc{0.0}{0.3}{0.0}{0}        &  \tc{14.1}{1.8}{1.6}{84}      \\
      \zee &  42122011 &  \tc{0.0}{2.6}{0.0}{0}        &  \tc{0.0}{2.6}{0.0}{0}        &  \tc{0.0}{2.6}{0.0}{0}        &  \tc{11.2}{5.5}{3.9}{8}       &  \tc{12.6}{5.8}{4.1}{9}       &  \tc{1.4}{3.2}{1.2}{1}        &  \tc{1.4}{3.2}{1.2}{1}        \\
      \zbb &  42150000 &  \tc{0.0}{0.2}{0.0}{0}        &  \tc{0.1}{0.3}{0.1}{1}        &  \tc{0.0}{0.2}{0.0}{0}        &  \tc{0.0}{0.2}{0.0}{0}        &  \tc{0.0}{0.2}{0.0}{0}        &  \tc{0.1}{0.3}{0.1}{1}        &  \tc{0.5}{0.4}{0.2}{4}        \\
   \zmujet &  42112022 &  \tc{3.9}{1.0}{0.8}{24}       &  \tc{12.8}{1.7}{1.5}{79}      &  \tc{1.1}{0.6}{0.4}{7}        &  \tc{0.0}{0.3}{0.0}{0}        &  \tc{0.0}{0.3}{0.0}{0}        &  \tc{0.0}{0.3}{0.0}{0}        &  \tc{16.7}{1.9}{1.7}{103}     \\
  \wtaujet &  42300010 &  \tc{0.0}{5.2}{0.0}{0}        &  \tc{8.5}{8.3}{4.6}{3}        &  \tc{0.0}{5.2}{0.0}{0}        &  \tc{0.0}{5.2}{0.0}{0}        &  \tc{0.0}{5.2}{0.0}{0}        &  \tc{0.0}{5.2}{0.0}{0}        &  \tc{2.8}{6.5}{2.3}{1}        \\
   \wmujet &  42311011 &  \tc{0.6}{1.4}{0.5}{1}        &  \tc{41.7}{5.9}{5.2}{68}      &  \tc{4.3}{2.3}{1.6}{7}        &  \tc{0.0}{1.1}{0.0}{0}        &  \tc{0.6}{1.4}{0.5}{1}        &  \tc{0.0}{1.1}{0.0}{0}        &  \tc{12.3}{3.4}{2.7}{20}      \\
       \we &  42321000 &  \tc{0.0}{1.7}{0.0}{0}        &  \tc{0.0}{1.7}{0.0}{0}        &  \tc{0.0}{1.7}{0.0}{0}        &  \tc{1.9}{2.5}{1.2}{2}        &  \tc{20.8}{5.5}{4.4}{22}      &  \tc{4.7}{3.2}{2.0}{5}        &  \tc{3.8}{3.0}{1.8}{4}        \\
    \wejet &  42321010 &  \tc{0.0}{6.4}{0.0}{0}        &  \tc{0.0}{6.4}{0.0}{0}        &  \tc{0.0}{6.4}{0.0}{0}        &  \tc{3.5}{8.0}{2.9}{1}        &  \tc{41.5}{15.8}{11.9}{12}    &  \tc{3.5}{8.0}{2.9}{1}        &  \tc{10.4}{10.1}{5.7}{3}      \\
 \wmumujet &  42311012 &  \tc{2.7}{0.3}{0.3}{96}       &  \tc{0.0}{0.1}{0.0}{0}        &  \tc{0.0}{0.1}{0.0}{0}        &  \tc{0.0}{0.1}{0.0}{0}        &  \tc{0.0}{0.1}{0.0}{0}        &  \tc{0.0}{0.1}{0.0}{0}        &  \tc{0.0}{0.1}{0.0}{0}        \\
   \ccbare &  49021004 &  \tc{0.0}{0.9}{0.0}{0}        &  \tc{0.0}{0.9}{0.0}{0}        &  \tc{0.0}{0.9}{0.0}{0}        &  \tc{0.0}{0.9}{0.0}{0}        &  \tc{1.4}{1.4}{0.8}{3}        &  \tc{0.5}{1.1}{0.4}{1}        &  \tc{0.9}{1.2}{0.6}{2}        \\
  \ccbarmu &  49011004 &  \tc{0.0}{0.9}{0.0}{0}        &  \tc{12.9}{3.3}{2.8}{26}      &  \tc{7.9}{2.6}{2.1}{16}       &  \tc{0.0}{0.9}{0.0}{0}        &  \tc{0.0}{0.9}{0.0}{0}        &  \tc{0.0}{0.9}{0.0}{0}        &  \tc{2.0}{1.6}{1.0}{4}        \\
   \bbbare &  49021005 &  \tc{0.0}{4.8}{0.0}{0}        &  \tc{0.0}{4.8}{0.0}{0}        &  \tc{0.0}{4.8}{0.0}{0}        &  \tc{0.0}{4.8}{0.0}{0}        &  \tc{7.9}{7.7}{4.3}{3}        &  \tc{0.0}{4.8}{0.0}{0}        &  \tc{5.2}{6.9}{3.4}{2}        \\
  \bbbarmu &  49011005 &  \tc{23.2}{10.6}{7.6}{9}      &  \tc{36.1}{12.5}{9.6}{14}     &  \tc{10.3}{8.2}{4.9}{4}       &  \tc{0.0}{4.7}{0.0}{0}        &  \tc{0.0}{4.7}{0.0}{0}        &  \tc{0.0}{4.7}{0.0}{0}        &  \tc{18.0}{9.7}{6.7}{7}       \\
    \ttbar &  41900006 &  \tc{0.1}{0.0}{0.0}{15}       &  \tc{0.1}{0.0}{0.0}{16}       &  \tc{0.1}{0.0}{0.0}{8}        &  \tc{0.0}{0.0}{0.0}{2}        &  \tc{0.1}{0.0}{0.0}{14}       &  \tc{0.0}{0.0}{0.0}{1}        &  \tc{0.1}{0.0}{0.0}{15}       \\
    \ttbar &  41900007 &  \tc{0.1}{0.0}{0.0}{22}       &  \tc{0.2}{0.0}{0.0}{46}       &  \tc{0.1}{0.0}{0.0}{16}       &  \tc{0.0}{0.0}{0.0}{6}        &  \tc{0.1}{0.0}{0.0}{25}       &  \tc{0.0}{0.0}{0.0}{9}        &  \tc{0.1}{0.0}{0.0}{27}       \\
    \ttbar &  41900010 &  \tc{0.8}{0.1}{0.1}{244}      &  \tc{1.0}{0.2}{0.2}{331}      &  \tc{0.3}{0.1}{0.1}{96}       &  \tc{0.0}{0.0}{0.0}{0}        &  \tc{0.0}{0.0}{0.0}{0}        &  \tc{0.0}{0.0}{0.0}{0}        &  \tc{0.3}{0.1}{0.1}{82}       \\
     \wwll &  41922002 &  \tc{0.0}{0.0}{0.0}{0}        &  \tc{0.0}{0.0}{0.0}{3}        &  \tc{0.0}{0.0}{0.0}{0}        &  \tc{0.0}{0.0}{0.0}{1}        &  \tc{0.0}{0.0}{0.0}{0}        &  \tc{0.0}{0.0}{0.0}{0}        &  \tc{0.0}{0.0}{0.0}{5}        \\
     \wwlx &  42021000 &  \tc{0.0}{0.0}{0.0}{0}        &  \tc{0.0}{0.1}{0.0}{1}        &  \tc{0.0}{0.0}{0.0}{0}        &  \tc{0.0}{0.0}{0.0}{0}        &  \tc{0.0}{0.0}{0.0}{0}        &  \tc{0.0}{0.0}{0.0}{0}        &  \tc{0.0}{0.1}{0.0}{2}        \\
     \wzlx &  42021001 &  \tc{0.0}{0.0}{0.0}{5}        &  \tc{0.1}{0.0}{0.0}{14}       &  \tc{0.0}{0.0}{0.0}{4}        &  \tc{0.0}{0.0}{0.0}{6}        &  \tc{0.0}{0.0}{0.0}{8}        &  \tc{0.0}{0.0}{0.0}{1}        &  \tc{0.4}{0.1}{0.1}{77}       \\
\midrule
      Data &           &                            50 &                           293 &                            25 &                            58 &                           380 &                            28 &                           186 \\
\bottomrule
\end{tabular}
