\begin{tabular}{llllll}
\toprule
   Process &        ID &                          \hmue &                           \hmuh1 &                          \hmuh3 &                         \hmumu \\
\midrule
    \ttbar &  41900006 &   \tc{0.0}{0.0}{0.0}{0}        &     \tc{0.0}{0.0}{0.0}{0}        &    \tc{0.0}{0.0}{0.0}{0}        &   \tc{0.0}{0.0}{0.0}{0}        \\
    \ttbar &  41900007 &   \tc{0.0}{0.0}{0.0}{0}        &     \tc{0.0}{0.0}{0.0}{0}        &    \tc{0.0}{0.0}{0.0}{0}        &   \tc{0.0}{0.0}{0.0}{0}        \\
    \ttbar &  41900010 &   \tc{0.0}{0.0}{0.0}{0}        &     \tc{0.0}{0.0}{0.0}{0}        &    \tc{0.0}{0.0}{0.0}{0}        &   \tc{0.0}{0.0}{0.0}{0}        \\
     \wwll &  41922002 &   \tc{0.0}{0.0}{0.0}{0}        &     \tc{0.0}{0.0}{0.0}{0}        &    \tc{0.0}{0.0}{0.0}{0}        &   \tc{0.0}{0.0}{0.0}{0}        \\
     \wwlx &  42021000 &   \tc{0.0}{0.0}{0.0}{0}        &     \tc{0.0}{0.0}{0.0}{0}        &    \tc{0.0}{0.0}{0.0}{0}        &   \tc{0.0}{0.0}{0.0}{0}        \\
     \wzlx &  42021001 &   \tc{0.0}{0.0}{0.0}{0}        &     \tc{0.0}{0.0}{0.0}{0}        &    \tc{0.0}{0.0}{0.0}{0}        &   \tc{0.0}{0.0}{0.0}{0}        \\
  \ztautau &  42100000 &   \tc{25.9}{2.2}{2.1}{167}     &     \tc{53.9}{3.2}{3.1}{348}     &    \tc{13.2}{1.6}{1.4}{85}      &   \tc{1.4}{0.6}{0.5}{9}        \\
    \zmumu &  42112011 &   \tc{878.2}{30.1}{30.1}{5235} &   \tc{5484}{174.5}{174.4}{32693} &    \tc{1756}{57.7}{57.6}{10470} &   \tc{319.9}{12.5}{12.4}{1907} \\
   \zmujet &  42112022 &   \tc{849.4}{29.6}{29.5}{5238} &   \tc{3868}{126.0}{126.0}{23855} &    \tc{1252}{42.5}{42.4}{7721}  &   \tc{321.9}{12.7}{12.6}{1985} \\
      \zee &  42122011 &   \tc{121.9}{15.0}{13.6}{87}   &     \tc{0.0}{2.6}{0.0}{0}        &    \tc{0.0}{2.6}{0.0}{0}        &   \tc{0.0}{2.6}{0.0}{0}        \\
      \zbb &  42150000 &   \tc{95.8}{4.7}{4.6}{814}     &     \tc{291.4}{11.4}{11.3}{2475} &    \tc{198.1}{8.3}{8.2}{1683}   &   \tc{97.1}{4.8}{4.7}{825}     \\
  \wtaujet &  42300010 &   \tc{133.0}{22.8}{19.8}{47}   &     \tc{1081}{68.0}{65.5}{382}   &    \tc{472.6}{42.4}{39.6}{167}  &   \tc{25.5}{11.7}{8.4}{9}      \\
   \wmujet &  42311011 &   \tc{2297}{84.9}{84.6}{3751}  &  \tc{14590}{491.0}{490.9}{23819} &   \tc{5759}{199.4}{199.2}{9402} &   \tc{604.6}{28.2}{27.7}{987}  \\
 \wmumujet &  42311012 &   \tc{0.0}{0.1}{0.0}{0}        &     \tc{0.0}{0.1}{0.0}{0}        &    \tc{0.0}{0.1}{0.0}{0}        &   \tc{42.5}{1.3}{1.3}{1531}    \\
       \we &  42321000 &   \tc{284.1}{18.2}{17.2}{300}  &     \tc{0.0}{1.7}{0.0}{0}        &    \tc{0.0}{1.7}{0.0}{0}        &   \tc{0.0}{1.7}{0.0}{0}        \\
    \wejet &  42321010 &   \tc{318.3}{38.2}{34.7}{92}   &     \tc{0.0}{6.4}{0.0}{0}        &    \tc{0.0}{6.4}{0.0}{0}        &   \tc{0.0}{6.4}{0.0}{0}        \\
  \ccbarmu &  49011004 &   \tc{551.9}{58.7}{58.6}{1114} &   \tc{7748}{791.8}{791.8}{15640} &   \tc{3507}{359.9}{359.8}{7081} &   \tc{254.1}{28.4}{28.2}{513}  \\
  \bbbarmu &  49011005 &  \tc{4215}{184.0}{182.5}{1637} &   \tc{17870}{671.1}{670.3}{6940} &  \tc{13336}{509.8}{508.8}{5179} &  \tc{5124}{216.7}{215.3}{1990} \\
   \ccbare &  49021004 &   \tc{58.3}{8.5}{8.2}{125}     &     \tc{0.0}{0.9}{0.0}{0}        &    \tc{0.0}{0.9}{0.0}{0}        &   \tc{0.0}{0.9}{0.0}{0}        \\
   \bbbare &  49021005 &   \tc{1420}{81.3}{79.2}{542}   &     \tc{0.0}{4.8}{0.0}{0}        &    \tc{0.0}{4.8}{0.0}{0}        &   \tc{0.0}{4.8}{0.0}{0}        \\
\midrule
      Data &           &                          34046 &                           248425 &                           48529 &                          12153 \\
\bottomrule
\end{tabular}
