\begin{tabular}{llllll}
\toprule
   Process &        ID &                         \hmue &                        \hmuh1 &                        \hmuh3 &                        \hmumu \\
\midrule
    \ttbar &  41900006 &  \tc{0.7}{0.1}{0.1}{97}       &  \tc{0.5}{0.1}{0.1}{63}       &  \tc{0.2}{0.0}{0.0}{24}       &  \tc{0.1}{0.0}{0.0}{9}        \\
    \ttbar &  41900007 &  \tc{0.8}{0.1}{0.1}{250}      &  \tc{0.4}{0.0}{0.0}{118}      &  \tc{0.1}{0.0}{0.0}{39}       &  \tc{0.2}{0.0}{0.0}{56}       \\
    \ttbar &  41900010 &  \tc{0.2}{0.0}{0.0}{62}       &  \tc{0.4}{0.1}{0.1}{140}      &  \tc{0.4}{0.1}{0.1}{129}      &  \tc{1.0}{0.2}{0.2}{325}      \\
     \wwll &  41922002 &  \tc{2.8}{0.1}{0.1}{629}      &  \tc{0.0}{0.0}{0.0}{1}        &  \tc{0.0}{0.0}{0.0}{0}        &  \tc{0.0}{0.0}{0.0}{2}        \\
     \wwlx &  42021000 &  \tc{3.2}{0.3}{0.3}{136}      &  \tc{0.9}{0.2}{0.1}{36}       &  \tc{0.2}{0.1}{0.1}{9}        &  \tc{0.2}{0.1}{0.1}{8}        \\
     \wzlx &  42021001 &  \tc{0.1}{0.0}{0.0}{25}       &  \tc{0.1}{0.0}{0.0}{14}       &  \tc{0.1}{0.0}{0.0}{9}        &  \tc{0.1}{0.0}{0.0}{20}       \\
  \ztautau &  42100000 &  \tc{226.8}{7.4}{7.3}{1465}   &  \tc{575.6}{14.3}{14.2}{3718} &  \tc{120.6}{5.0}{4.9}{779}    &  \tc{124.2}{5.1}{4.9}{802}    \\
    \zmumu &  42112011 &  \tc{14.4}{1.8}{1.6}{86}      &  \tc{61.7}{3.9}{3.8}{368}     &  \tc{12.6}{1.7}{1.5}{75}      &  \tc{142.6}{6.7}{6.6}{850}    \\
   \zmujet &  42112022 &  \tc{11.2}{1.6}{1.4}{69}      &  \tc{16.5}{1.9}{1.7}{102}     &  \tc{3.7}{1.0}{0.8}{23}       &  \tc{122.6}{6.1}{5.9}{756}    \\
      \zee &  42122011 &  \tc{2.8}{3.7}{1.8}{2}        &  \tc{0.0}{2.6}{0.0}{0}        &  \tc{0.0}{2.6}{0.0}{0}        &  \tc{0.0}{2.6}{0.0}{0}        \\
      \zbb &  42150000 &  \tc{0.1}{0.3}{0.1}{1}        &  \tc{0.1}{0.3}{0.1}{1}        &  \tc{0.0}{0.2}{0.0}{0}        &  \tc{0.1}{0.3}{0.1}{1}        \\
  \wtaujet &  42300010 &  \tc{0.0}{5.2}{0.0}{0}        &  \tc{14.1}{9.6}{6.1}{5}       &  \tc{0.0}{5.2}{0.0}{0}        &  \tc{0.0}{5.2}{0.0}{0}        \\
   \wmujet &  42311011 &  \tc{13.5}{3.6}{2.9}{22}      &  \tc{155.0}{11.6}{11.0}{253}  &  \tc{46.6}{6.2}{5.5}{76}      &  \tc{4.9}{2.4}{1.7}{8}        \\
 \wmumujet &  42311012 &  \tc{0.0}{0.1}{0.0}{0}        &  \tc{0.0}{0.1}{0.0}{0}        &  \tc{0.0}{0.1}{0.0}{0}        &  \tc{4.9}{0.4}{0.4}{175}      \\
       \we &  42321000 &  \tc{0.0}{1.7}{0.0}{0}        &  \tc{0.0}{1.7}{0.0}{0}        &  \tc{0.0}{1.7}{0.0}{0}        &  \tc{0.0}{1.7}{0.0}{0}        \\
    \wejet &  42321010 &  \tc{0.0}{6.4}{0.0}{0}        &  \tc{0.0}{6.4}{0.0}{0}        &  \tc{0.0}{6.4}{0.0}{0}        &  \tc{0.0}{6.4}{0.0}{0}        \\
  \ccbarmu &  49011004 &  \tc{7.4}{2.6}{2.0}{15}       &  \tc{19.3}{4.1}{3.7}{39}      &  \tc{18.8}{4.1}{3.6}{38}      &  \tc{2.0}{1.6}{1.0}{4}        \\
  \bbbarmu &  49011005 &  \tc{7.7}{7.5}{4.2}{3}        &  \tc{20.6}{10.2}{7.2}{8}      &  \tc{15.5}{9.2}{6.2}{6}       &  \tc{28.3}{11.4}{8.5}{11}     \\
   \ccbare &  49021004 &  \tc{0.5}{1.1}{0.4}{1}        &  \tc{0.0}{0.9}{0.0}{0}        &  \tc{0.0}{0.9}{0.0}{0}        &  \tc{0.0}{0.9}{0.0}{0}        \\
   \bbbare &  49021005 &  \tc{2.6}{6.0}{2.2}{1}        &  \tc{0.0}{4.8}{0.0}{0}        &  \tc{0.0}{4.8}{0.0}{0}        &  \tc{0.0}{4.8}{0.0}{0}        \\
\midrule
      Data &           &                           472 &                          1284 &                           240 &                           344 \\
\bottomrule
\end{tabular}
