\begin{tabular}{llllll}
\toprule
   Process &        ID &                         \hmue &                        \hmuh1 &                        \hmuh3 &                        \hmumu \\
\midrule
    \ttbar &  41900006 &  \tc{0.0}{0.0}{0.0}{0}        &  \tc{0.0}{0.0}{0.0}{0}        &  \tc{0.0}{0.0}{0.0}{0}        &  \tc{0.0}{0.0}{0.0}{0}        \\
    \ttbar &  41900007 &  \tc{0.0}{0.0}{0.0}{0}        &  \tc{0.0}{0.0}{0.0}{0}        &  \tc{0.0}{0.0}{0.0}{0}        &  \tc{0.0}{0.0}{0.0}{0}        \\
    \ttbar &  41900010 &  \tc{0.0}{0.0}{0.0}{0}        &  \tc{0.0}{0.0}{0.0}{0}        &  \tc{0.0}{0.0}{0.0}{0}        &  \tc{0.0}{0.0}{0.0}{0}        \\
     \wwll &  41922002 &  \tc{0.0}{0.0}{0.0}{0}        &  \tc{0.0}{0.0}{0.0}{0}        &  \tc{0.0}{0.0}{0.0}{0}        &  \tc{0.0}{0.0}{0.0}{0}        \\
     \wwlx &  42021000 &  \tc{0.0}{0.0}{0.0}{0}        &  \tc{0.0}{0.0}{0.0}{0}        &  \tc{0.0}{0.0}{0.0}{0}        &  \tc{0.0}{0.0}{0.0}{0}        \\
     \wzlx &  42021001 &  \tc{0.0}{0.0}{0.0}{0}        &  \tc{0.0}{0.0}{0.0}{0}        &  \tc{0.0}{0.0}{0.0}{0}        &  \tc{0.0}{0.0}{0.0}{0}        \\
  \ztautau &  42100000 &  \tc{1.7}{0.7}{0.5}{11}       &  \tc{0.5}{0.5}{0.3}{3}        &  \tc{0.5}{0.5}{0.3}{3}        &  \tc{0.0}{0.3}{0.0}{0}        \\
    \zmumu &  42112011 &  \tc{9.4}{1.5}{1.3}{56}       &  \tc{57.5}{3.7}{3.6}{343}     &  \tc{11.6}{1.6}{1.4}{69}      &  \tc{2.7}{0.9}{0.7}{16}       \\
   \zmujet &  42112022 &  \tc{11.7}{1.6}{1.4}{72}      &  \tc{14.6}{1.8}{1.6}{90}      &  \tc{6.2}{1.2}{1.0}{38}       &  \tc{3.1}{0.9}{0.7}{19}       \\
      \zee &  42122011 &  \tc{0.0}{2.6}{0.0}{0}        &  \tc{0.0}{2.6}{0.0}{0}        &  \tc{0.0}{2.6}{0.0}{0}        &  \tc{0.0}{2.6}{0.0}{0}        \\
      \zbb &  42150000 &  \tc{0.0}{0.2}{0.0}{0}        &  \tc{0.0}{0.2}{0.0}{0}        &  \tc{0.0}{0.2}{0.0}{0}        &  \tc{0.0}{0.2}{0.0}{0}        \\
  \wtaujet &  42300010 &  \tc{0.0}{5.2}{0.0}{0}        &  \tc{2.8}{6.5}{2.3}{1}        &  \tc{0.0}{5.2}{0.0}{0}        &  \tc{0.0}{5.2}{0.0}{0}        \\
   \wmujet &  42311011 &  \tc{6.7}{2.7}{2.0}{11}       &  \tc{41.0}{5.8}{5.2}{67}      &  \tc{20.2}{4.2}{3.6}{33}      &  \tc{0.6}{1.4}{0.5}{1}        \\
 \wmumujet &  42311012 &  \tc{0.0}{0.1}{0.0}{0}        &  \tc{0.0}{0.1}{0.0}{0}        &  \tc{0.0}{0.1}{0.0}{0}        &  \tc{2.3}{0.3}{0.3}{83}       \\
       \we &  42321000 &  \tc{0.0}{1.7}{0.0}{0}        &  \tc{0.0}{1.7}{0.0}{0}        &  \tc{0.0}{1.7}{0.0}{0}        &  \tc{0.0}{1.7}{0.0}{0}        \\
    \wejet &  42321010 &  \tc{0.0}{6.4}{0.0}{0}        &  \tc{0.0}{6.4}{0.0}{0}        &  \tc{0.0}{6.4}{0.0}{0}        &  \tc{0.0}{6.4}{0.0}{0}        \\
  \ccbarmu &  49011004 &  \tc{1.5}{1.5}{0.8}{3}        &  \tc{10.9}{3.1}{2.6}{22}      &  \tc{5.4}{2.3}{1.7}{11}       &  \tc{0.0}{0.9}{0.0}{0}        \\
  \bbbarmu &  49011005 &  \tc{2.6}{5.9}{2.1}{1}        &  \tc{12.9}{8.7}{5.6}{5}       &  \tc{2.6}{5.9}{2.1}{1}        &  \tc{5.2}{6.8}{3.3}{2}        \\
   \ccbare &  49021004 &  \tc{0.5}{1.1}{0.4}{1}        &  \tc{0.0}{0.9}{0.0}{0}        &  \tc{0.0}{0.9}{0.0}{0}        &  \tc{0.0}{0.9}{0.0}{0}        \\
   \bbbare &  49021005 &  \tc{0.0}{4.8}{0.0}{0}        &  \tc{0.0}{4.8}{0.0}{0}        &  \tc{0.0}{4.8}{0.0}{0}        &  \tc{0.0}{4.8}{0.0}{0}        \\
\midrule
      Data &           &                            78 &                           509 &                           115 &                            25 \\
\bottomrule
\end{tabular}
