\begin{tabular}{llllll}
\toprule
   Process &        ID &                         \hmue &                        \hmuh1 &                        \hmuh3 &                        \hmumu \\
\midrule
    \ttbar &  41900006 &  \tc{0.0}{0.0}{0.0}{0}        &  \tc{0.0}{0.0}{0.0}{0}        &  \tc{0.0}{0.0}{0.0}{0}        &  \tc{0.0}{0.0}{0.0}{0}        \\
    \ttbar &  41900007 &  \tc{0.0}{0.0}{0.0}{0}        &  \tc{0.0}{0.0}{0.0}{0}        &  \tc{0.0}{0.0}{0.0}{0}        &  \tc{0.0}{0.0}{0.0}{0}        \\
    \ttbar &  41900010 &  \tc{0.0}{0.0}{0.0}{0}        &  \tc{0.0}{0.0}{0.0}{0}        &  \tc{0.0}{0.0}{0.0}{0}        &  \tc{0.0}{0.0}{0.0}{0}        \\
     \wwll &  41922002 &  \tc{0.0}{0.0}{0.0}{0}        &  \tc{0.0}{0.0}{0.0}{0}        &  \tc{0.0}{0.0}{0.0}{0}        &  \tc{0.0}{0.0}{0.0}{0}        \\
     \wwlx &  42021000 &  \tc{0.0}{0.0}{0.0}{0}        &  \tc{0.0}{0.0}{0.0}{0}        &  \tc{0.0}{0.0}{0.0}{0}        &  \tc{0.0}{0.0}{0.0}{0}        \\
     \wzlx &  42021001 &  \tc{0.0}{0.0}{0.0}{0}        &  \tc{0.0}{0.0}{0.0}{0}        &  \tc{0.0}{0.0}{0.0}{0}        &  \tc{0.0}{0.0}{0.0}{0}        \\
  \ztautau &  42100000 &  \tc{0.0}{0.3}{0.0}{0}        &  \tc{0.2}{0.4}{0.1}{1}        &  \tc{0.2}{0.4}{0.1}{1}        &  \tc{0.0}{0.3}{0.0}{0}        \\
    \zmumu &  42112011 &  \tc{1.3}{0.7}{0.5}{8}        &  \tc{17.8}{2.0}{1.8}{106}     &  \tc{3.9}{1.0}{0.8}{23}       &  \tc{0.8}{0.6}{0.4}{5}        \\
   \zmujet &  42112022 &  \tc{2.1}{0.8}{0.6}{13}       &  \tc{17.8}{2.0}{1.8}{110}     &  \tc{1.8}{0.7}{0.5}{11}       &  \tc{0.8}{0.5}{0.4}{5}        \\
      \zee &  42122011 &  \tc{0.0}{2.6}{0.0}{0}        &  \tc{0.0}{2.6}{0.0}{0}        &  \tc{0.0}{2.6}{0.0}{0}        &  \tc{0.0}{2.6}{0.0}{0}        \\
      \zbb &  42150000 &  \tc{0.0}{0.2}{0.0}{0}        &  \tc{0.0}{0.2}{0.0}{0}        &  \tc{0.0}{0.2}{0.0}{0}        &  \tc{0.0}{0.2}{0.0}{0}        \\
  \wtaujet &  42300010 &  \tc{0.0}{5.2}{0.0}{0}        &  \tc{0.0}{5.2}{0.0}{0}        &  \tc{0.0}{5.2}{0.0}{0}        &  \tc{0.0}{5.2}{0.0}{0}        \\
   \wmujet &  42311011 &  \tc{1.8}{1.8}{1.0}{3}        &  \tc{20.2}{4.2}{3.6}{33}      &  \tc{6.1}{2.6}{1.9}{10}       &  \tc{0.0}{1.1}{0.0}{0}        \\
 \wmumujet &  42311012 &  \tc{0.0}{0.1}{0.0}{0}        &  \tc{0.0}{0.1}{0.0}{0}        &  \tc{0.0}{0.1}{0.0}{0}        &  \tc{0.3}{0.1}{0.1}{12}       \\
       \we &  42321000 &  \tc{0.9}{2.2}{0.8}{1}        &  \tc{0.0}{1.7}{0.0}{0}        &  \tc{0.0}{1.7}{0.0}{0}        &  \tc{0.0}{1.7}{0.0}{0}        \\
    \wejet &  42321010 &  \tc{0.0}{6.4}{0.0}{0}        &  \tc{0.0}{6.4}{0.0}{0}        &  \tc{0.0}{6.4}{0.0}{0}        &  \tc{0.0}{6.4}{0.0}{0}        \\
  \ccbarmu &  49011004 &  \tc{0.0}{0.9}{0.0}{0}        &  \tc{0.5}{1.1}{0.4}{1}        &  \tc{0.0}{0.9}{0.0}{0}        &  \tc{0.0}{0.9}{0.0}{0}        \\
  \bbbarmu &  49011005 &  \tc{0.0}{4.7}{0.0}{0}        &  \tc{0.0}{4.7}{0.0}{0}        &  \tc{0.0}{4.7}{0.0}{0}        &  \tc{0.0}{4.7}{0.0}{0}        \\
   \ccbare &  49021004 &  \tc{0.0}{0.9}{0.0}{0}        &  \tc{0.0}{0.9}{0.0}{0}        &  \tc{0.0}{0.9}{0.0}{0}        &  \tc{0.0}{0.9}{0.0}{0}        \\
   \bbbare &  49021005 &  \tc{0.0}{4.8}{0.0}{0}        &  \tc{0.0}{4.8}{0.0}{0}        &  \tc{0.0}{4.8}{0.0}{0}        &  \tc{0.0}{4.8}{0.0}{0}        \\
\midrule
      Data &           &                             3 &                            54 &                            19 &                             4 \\
\bottomrule
\end{tabular}
