\begin{tabular}{llll}
\toprule
   Process &        ID &                            \dmumu &                             \dee \\
\midrule
  \ztautau &  42100000 &      \tc{0.8}{0.5}{0.3}{5}        &     \tc{1.9}{0.7}{0.5}{12}       \\
    \zmumu &  42112011 &   \tc{100542}{3151}{3151}{599370} &     \tc{0.0}{0.3}{0.0}{0}        \\
      \zee &  42122011 &      \tc{0.0}{2.6}{0.0}{0}        &  \tc{30260}{972.7}{972.4}{21602} \\
      \zbb &  42150000 &      \tc{0.0}{0.2}{0.0}{0}        &     \tc{0.0}{0.2}{0.0}{0}        \\
   \zmujet &  42112022 &  \tc{178746}{5707}{5707}{1102263} &     \tc{0.0}{0.3}{0.0}{0}        \\
  \wtaujet &  42300010 &      \tc{0.0}{5.2}{0.0}{0}        &     \tc{0.0}{5.2}{0.0}{0}        \\
   \wmujet &  42311011 &      \tc{11.0}{3.3}{2.6}{18}      &     \tc{0.0}{1.1}{0.0}{0}        \\
       \we &  42321000 &      \tc{0.0}{1.7}{0.0}{0}        &     \tc{20.8}{5.5}{4.4}{22}      \\
    \wejet &  42321010 &      \tc{0.0}{6.4}{0.0}{0}        &     \tc{34.6}{14.8}{10.8}{10}    \\
 \wmumujet &  42311012 &      \tc{4.4}{0.4}{0.4}{160}      &     \tc{0.0}{0.1}{0.0}{0}        \\
   \ccbare &  49021004 &      \tc{0.0}{0.9}{0.0}{0}        &     \tc{0.9}{1.2}{0.6}{2}        \\
  \ccbarmu &  49011004 &      \tc{6.4}{2.4}{1.9}{13}       &     \tc{0.0}{0.9}{0.0}{0}        \\
   \bbbare &  49021005 &      \tc{0.0}{4.8}{0.0}{0}        &     \tc{0.0}{4.8}{0.0}{0}        \\
  \bbbarmu &  49011005 &      \tc{23.2}{10.6}{7.6}{9}      &     \tc{0.0}{4.7}{0.0}{0}        \\
    \ttbar &  41900006 &      \tc{1.8}{0.1}{0.1}{243}      &     \tc{1.0}{0.1}{0.1}{135}      \\
    \ttbar &  41900007 &      \tc{2.5}{0.1}{0.1}{757}      &     \tc{1.4}{0.1}{0.1}{414}      \\
    \ttbar &  41900010 &      \tc{94.0}{17.0}{17.0}{30307} &     \tc{0.0}{0.0}{0.0}{0}        \\
     \wwll &  41922002 &      \tc{3.6}{0.1}{0.1}{807}      &     \tc{2.5}{0.1}{0.1}{564}      \\
     \wwlx &  42021000 &      \tc{4.2}{0.3}{0.3}{176}      &     \tc{2.7}{0.3}{0.3}{115}      \\
     \wzlx &  42021001 &      \tc{32.6}{0.8}{0.8}{5763}    &     \tc{10.3}{0.3}{0.3}{1825}    \\
\midrule
      Data &           &                            103103 &                            29346 \\
\bottomrule
\end{tabular}
