\begin{tabular}{lllllllll}
\toprule
   Process &        ID &                        \dmumu &                        \dmuh1 &                        \dmuh3 &                          \dee &                         \deh1 &                         \deh3 &                         \dmue \\
\midrule
  \ztautau &  42100000 &  \tc{278.6}{8.5}{8.4}{1800}   &  \tc{750.8}{17.7}{17.6}{4850} &  \tc{151.2}{5.7}{5.6}{977}    &  \tc{66.1}{3.6}{3.4}{427}     &  \tc{303.7}{9.0}{8.9}{1962}   &  \tc{56.8}{3.3}{3.1}{367}     &  \tc{631.3}{15.4}{15.3}{4078} \\
    \zmumu &  42112011 &  \tc{239.0}{9.9}{9.8}{1425}   &  \tc{25.3}{2.4}{2.2}{151}     &  \tc{1.5}{0.7}{0.5}{9}        &  \tc{0.0}{0.3}{0.0}{0}        &  \tc{0.0}{0.3}{0.0}{0}        &  \tc{0.0}{0.3}{0.0}{0}        &  \tc{21.5}{2.2}{2.0}{128}     \\
      \zee &  42122011 &  \tc{0.0}{2.6}{0.0}{0}        &  \tc{0.0}{2.6}{0.0}{0}        &  \tc{0.0}{2.6}{0.0}{0}        &  \tc{420.2}{28.9}{27.6}{300}  &  \tc{33.6}{8.4}{6.9}{24}      &  \tc{1.4}{3.2}{1.2}{1}        &  \tc{18.2}{6.6}{5.0}{13}      \\
      \zbb &  42150000 &  \tc{0.7}{0.4}{0.3}{6}        &  \tc{0.2}{0.3}{0.2}{2}        &  \tc{0.0}{0.2}{0.0}{0}        &  \tc{0.0}{0.2}{0.0}{0}        &  \tc{0.2}{0.3}{0.2}{2}        &  \tc{0.0}{0.2}{0.0}{0}        &  \tc{0.2}{0.3}{0.2}{2}        \\
   \zmujet &  42112022 &  \tc{83.7}{4.7}{4.5}{516}     &  \tc{14.3}{1.7}{1.6}{88}      &  \tc{0.8}{0.5}{0.4}{5}        &  \tc{0.0}{0.3}{0.0}{0}        &  \tc{0.0}{0.3}{0.0}{0}        &  \tc{0.0}{0.3}{0.0}{0}        &  \tc{21.2}{2.1}{2.0}{131}     \\
  \wtaujet &  42300010 &  \tc{0.0}{5.2}{0.0}{0}        &  \tc{22.6}{11.2}{7.9}{8}      &  \tc{0.0}{5.2}{0.0}{0}        &  \tc{0.0}{5.2}{0.0}{0}        &  \tc{0.0}{5.2}{0.0}{0}        &  \tc{2.8}{6.5}{2.3}{1}        &  \tc{2.8}{6.5}{2.3}{1}        \\
   \wmujet &  42311011 &  \tc{5.5}{2.5}{1.8}{9}        &  \tc{115.2}{9.8}{9.2}{188}    &  \tc{8.6}{3.0}{2.3}{14}       &  \tc{0.0}{1.1}{0.0}{0}        &  \tc{0.0}{1.1}{0.0}{0}        &  \tc{0.0}{1.1}{0.0}{0}        &  \tc{19.0}{4.1}{3.4}{31}      \\
       \we &  42321000 &  \tc{0.0}{1.7}{0.0}{0}        &  \tc{0.0}{1.7}{0.0}{0}        &  \tc{0.0}{1.7}{0.0}{0}        &  \tc{4.7}{3.2}{2.0}{5}        &  \tc{73.9}{9.4}{8.5}{78}      &  \tc{8.5}{3.9}{2.8}{9}        &  \tc{4.7}{3.2}{2.0}{5}        \\
    \wejet &  42321010 &  \tc{0.0}{6.4}{0.0}{0}        &  \tc{0.0}{6.4}{0.0}{0}        &  \tc{0.0}{6.4}{0.0}{0}        &  \tc{6.9}{9.1}{4.5}{2}        &  \tc{62.3}{18.5}{14.7}{18}    &  \tc{3.5}{8.0}{2.9}{1}        &  \tc{3.5}{8.0}{2.9}{1}        \\
 \wmumujet &  42311012 &  \tc{5.4}{0.4}{0.4}{195}      &  \tc{0.0}{0.1}{0.0}{0}        &  \tc{0.0}{0.1}{0.0}{0}        &  \tc{0.0}{0.1}{0.0}{0}        &  \tc{0.0}{0.1}{0.0}{0}        &  \tc{0.0}{0.1}{0.0}{0}        &  \tc{0.0}{0.1}{0.0}{0}        \\
   \ccbare &  49021004 &  \tc{0.0}{0.9}{0.0}{0}        &  \tc{0.0}{0.9}{0.0}{0}        &  \tc{0.0}{0.9}{0.0}{0}        &  \tc{0.0}{0.9}{0.0}{0}        &  \tc{6.1}{2.3}{1.8}{13}       &  \tc{3.7}{1.9}{1.4}{8}        &  \tc{5.6}{2.2}{1.7}{12}       \\
  \ccbarmu &  49011004 &  \tc{9.4}{2.9}{2.3}{19}       &  \tc{31.2}{5.5}{5.0}{63}      &  \tc{21.3}{4.3}{3.9}{43}      &  \tc{0.0}{0.9}{0.0}{0}        &  \tc{0.0}{0.9}{0.0}{0}        &  \tc{0.0}{0.9}{0.0}{0}        &  \tc{11.9}{3.2}{2.7}{24}      \\
   \bbbare &  49021005 &  \tc{0.0}{4.8}{0.0}{0}        &  \tc{0.0}{4.8}{0.0}{0}        &  \tc{0.0}{4.8}{0.0}{0}        &  \tc{15.7}{9.4}{6.3}{6}       &  \tc{7.9}{7.7}{4.3}{3}        &  \tc{2.6}{6.0}{2.2}{1}        &  \tc{55.0}{15.0}{12.1}{21}    \\
  \bbbarmu &  49011005 &  \tc{141.6}{22.4}{19.7}{55}   &  \tc{67.0}{16.1}{13.3}{26}    &  \tc{10.3}{8.2}{4.9}{4}       &  \tc{0.0}{4.7}{0.0}{0}        &  \tc{0.0}{4.7}{0.0}{0}        &  \tc{0.0}{4.7}{0.0}{0}        &  \tc{61.8}{15.5}{12.7}{24}    \\
    \ttbar &  41900006 &  \tc{0.1}{0.0}{0.0}{8}        &  \tc{0.4}{0.1}{0.1}{60}       &  \tc{0.1}{0.0}{0.0}{19}       &  \tc{0.1}{0.0}{0.0}{8}        &  \tc{0.3}{0.1}{0.0}{41}       &  \tc{0.1}{0.0}{0.0}{8}        &  \tc{2.2}{0.2}{0.1}{302}      \\
    \ttbar &  41900007 &  \tc{0.2}{0.0}{0.0}{50}       &  \tc{0.6}{0.1}{0.0}{176}      &  \tc{0.1}{0.0}{0.0}{33}       &  \tc{0.1}{0.0}{0.0}{26}       &  \tc{0.4}{0.0}{0.0}{112}      &  \tc{0.1}{0.0}{0.0}{24}       &  \tc{2.9}{0.1}{0.1}{883}      \\
    \ttbar &  41900010 &  \tc{0.8}{0.2}{0.2}{259}      &  \tc{1.2}{0.2}{0.2}{379}      &  \tc{0.3}{0.1}{0.1}{109}      &  \tc{0.0}{0.0}{0.0}{0}        &  \tc{0.0}{0.0}{0.0}{0}        &  \tc{0.0}{0.0}{0.0}{0}        &  \tc{0.3}{0.1}{0.1}{105}      \\
     \wwll &  41922002 &  \tc{0.0}{0.0}{0.0}{2}        &  \tc{0.0}{0.0}{0.0}{0}        &  \tc{0.0}{0.0}{0.0}{0}        &  \tc{0.0}{0.0}{0.0}{6}        &  \tc{0.0}{0.0}{0.0}{0}        &  \tc{0.0}{0.0}{0.0}{0}        &  \tc{8.5}{0.3}{0.3}{1913}     \\
     \wwlx &  42021000 &  \tc{0.2}{0.1}{0.1}{9}        &  \tc{1.1}{0.2}{0.2}{47}       &  \tc{0.2}{0.1}{0.1}{9}        &  \tc{0.2}{0.1}{0.1}{7}        &  \tc{0.7}{0.2}{0.1}{30}       &  \tc{0.2}{0.1}{0.1}{8}        &  \tc{9.4}{0.5}{0.5}{400}      \\
     \wzlx &  42021001 &  \tc{0.0}{0.0}{0.0}{5}        &  \tc{0.1}{0.0}{0.0}{19}       &  \tc{0.0}{0.0}{0.0}{1}        &  \tc{0.0}{0.0}{0.0}{6}        &  \tc{0.1}{0.0}{0.0}{12}       &  \tc{0.0}{0.0}{0.0}{2}        &  \tc{0.5}{0.1}{0.1}{92}       \\
\midrule
      Data &           &                           696 &                          1373 &                           205 &                           610 &                           861 &                           110 &                          1322 \\
\bottomrule
\end{tabular}
