\begin{tabular}{llllll}
\toprule
   Process &        ID &                            mu &                             e &                            h1 &                            h3 \\
\midrule
     \wwll &  41922002 &  \tc{0.0}{0.0}{0.0}{0}        &  \tc{0.0}{0.0}{0.0}{1}        &  \tc{0.0}{0.0}{0.0}{0}        &  \tc{0.0}{0.0}{0.0}{0}        \\
     \wwlx &  42021000 &  \tc{0.0}{0.0}{0.0}{0}        &  \tc{0.0}{0.0}{0.0}{0}        &  \tc{0.0}{0.1}{0.0}{1}        &  \tc{0.0}{0.1}{0.0}{1}        \\
     \wzlx &  42021001 &  \tc{0.0}{0.0}{0.0}{0}        &  \tc{0.0}{0.0}{0.0}{0}        &  \tc{0.0}{0.0}{0.0}{1}        &  \tc{0.0}{0.0}{0.0}{0}        \\
   \bbbare &  49021005 &  \tc{0.0}{4.8}{0.0}{0}        &  \tc{2.6}{6.0}{2.2}{1}        &  \tc{0.0}{4.8}{0.0}{0}        &  \tc{0.0}{4.8}{0.0}{0}        \\
  \bbbarmu &  49011005 &  \tc{15.5}{9.2}{6.2}{6}       &  \tc{20.6}{10.2}{7.2}{8}      &  \tc{69.5}{16.3}{13.5}{27}    &  \tc{23.2}{10.6}{7.6}{9}      \\
   \ccbare &  49021004 &  \tc{0.0}{0.9}{0.0}{0}        &  \tc{0.5}{1.1}{0.4}{1}        &  \tc{0.0}{0.9}{0.0}{0}        &  \tc{0.0}{0.9}{0.0}{0}        \\
  \ccbarmu &  49011004 &  \tc{5.0}{2.2}{1.6}{10}       &  \tc{4.0}{2.0}{1.4}{8}        &  \tc{62.4}{8.8}{8.4}{126}     &  \tc{11.9}{3.2}{2.7}{24}      \\
      \zee &  42122011 &  \tc{0.0}{2.6}{0.0}{0}        &  \tc{0.0}{2.6}{0.0}{0}        &  \tc{0.0}{2.6}{0.0}{0}        &  \tc{0.0}{2.6}{0.0}{0}        \\
    \zmumu &  42112011 &  \tc{1.2}{0.6}{0.4}{7}        &  \tc{0.5}{0.5}{0.3}{3}        &  \tc{5.7}{1.2}{1.0}{34}       &  \tc{1.2}{0.6}{0.4}{7}        \\
   HARDQCD &  49001000 &  \tc{0.0}{12047}{0.0}{0}      &  \tc{0.0}{12047}{0.0}{0}      &  \tc{0.0}{12047}{0.0}{0}      &  \tc{0.0}{12047}{0.0}{0}      \\
    \ttbar &  41900006 &  \tc{0.0}{0.0}{0.0}{5}        &  \tc{0.0}{0.0}{0.0}{2}        &  \tc{0.2}{0.0}{0.0}{31}       &  \tc{0.0}{0.0}{0.0}{4}        \\
    \ttbar &  41900007 &  \tc{0.1}{0.0}{0.0}{16}       &  \tc{0.1}{0.0}{0.0}{20}       &  \tc{0.2}{0.0}{0.0}{72}       &  \tc{0.1}{0.0}{0.0}{21}       \\
    \ttbar &  41900010 &  \tc{0.7}{0.1}{0.1}{225}      &  \tc{0.4}{0.1}{0.1}{120}      &  \tc{2.3}{0.4}{0.4}{734}      &  \tc{0.9}{0.2}{0.2}{281}      \\
       \we &  42321000 &  \tc{0.0}{1.7}{0.0}{0}        &  \tc{0.0}{1.7}{0.0}{0}        &  \tc{0.0}{1.7}{0.0}{0}        &  \tc{0.0}{1.7}{0.0}{0}        \\
    \wejet &  42321010 &  \tc{0.0}{6.4}{0.0}{0}        &  \tc{0.0}{6.4}{0.0}{0}        &  \tc{0.0}{6.4}{0.0}{0}        &  \tc{0.0}{6.4}{0.0}{0}        \\
   \wmujet &  42311011 &  \tc{0.0}{1.1}{0.0}{0}        &  \tc{0.6}{1.4}{0.5}{1}        &  \tc{3.1}{2.1}{1.3}{5}        &  \tc{0.0}{1.1}{0.0}{0}        \\
 \wmumujet &  42311012 &  \tc{0.1}{0.1}{0.1}{5}        &  \tc{0.0}{0.1}{0.0}{0}        &  \tc{0.0}{0.1}{0.0}{0}        &  \tc{0.0}{0.1}{0.0}{0}        \\
  \wtaujet &  42300010 &  \tc{0.0}{5.2}{0.0}{0}        &  \tc{0.0}{5.2}{0.0}{0}        &  \tc{0.0}{5.2}{0.0}{0}        &  \tc{0.0}{5.2}{0.0}{0}        \\
      \zbb &  42150000 &  \tc{0.0}{0.2}{0.0}{0}        &  \tc{0.1}{0.3}{0.1}{1}        &  \tc{1.9}{0.6}{0.5}{16}       &  \tc{0.4}{0.3}{0.2}{3}        \\
   \zmujet &  42112022 &  \tc{0.5}{0.5}{0.3}{3}        &  \tc{0.3}{0.4}{0.2}{2}        &  \tc{0.8}{0.5}{0.4}{5}        &  \tc{0.0}{0.3}{0.0}{0}        \\
  \ztaujet &  42100020 &  \tc{0.0}{0.6}{0.0}{0}        &  \tc{0.0}{0.6}{0.0}{0}        &  \tc{0.9}{0.9}{0.5}{3}        &  \tc{0.0}{0.6}{0.0}{0}        \\
  \ztautau &  42100000 &  \tc{0.0}{0.3}{0.0}{0}        &  \tc{0.0}{0.3}{0.0}{0}        &  \tc{0.2}{0.4}{0.1}{1}        &  \tc{0.0}{0.3}{0.0}{0}        \\
\midrule
      Data &           &                           155 &                           424 &                          5661 &                           961 \\
\bottomrule
\end{tabular}
