\begin{tabular}{llllll}
\toprule
   Process &        ID &                            mu &                             e &                            h1 &                            h3 \\
\midrule
     \wwll &  41922002 &  \tc{0.0}{0.0}{0.0}{6}        &  \tc{4.0}{0.2}{0.2}{901}      &  \tc{0.0}{0.0}{0.0}{11}       &  \tc{0.0}{0.0}{0.0}{2}        \\
     \wwlx &  42021000 &  \tc{0.4}{0.1}{0.1}{17}       &  \tc{5.3}{0.4}{0.4}{226}      &  \tc{7.5}{0.5}{0.4}{318}      &  \tc{1.8}{0.2}{0.2}{75}       \\
     \wzlx &  42021001 &  \tc{0.3}{0.0}{0.0}{56}       &  \tc{0.6}{0.1}{0.1}{99}       &  \tc{1.2}{0.1}{0.1}{210}      &  \tc{0.4}{0.1}{0.0}{75}       \\
   \bbbare &  49021005 &  \tc{0.0}{4.8}{0.0}{0}        &  \tc{81.2}{17.6}{14.8}{31}    &  \tc{0.0}{4.8}{0.0}{0}        &  \tc{0.0}{4.8}{0.0}{0}        \\
  \bbbarmu &  49011005 &  \tc{285.8}{31.5}{28.9}{111}  &  \tc{200.9}{26.4}{23.8}{78}   &  \tc{731.3}{52.9}{50.6}{284}  &  \tc{270.4}{30.6}{28.0}{105}  \\
   \ccbare &  49021004 &  \tc{0.0}{0.9}{0.0}{0}        &  \tc{4.2}{2.0}{1.4}{9}        &  \tc{0.0}{0.9}{0.0}{0}        &  \tc{0.0}{0.9}{0.0}{0}        \\
  \ccbarmu &  49011004 &  \tc{45.6}{7.0}{6.6}{92}      &  \tc{34.7}{5.8}{5.4}{70}      &  \tc{299.2}{33.0}{32.8}{604}  &  \tc{91.6}{11.8}{11.5}{185}   \\
      \zee &  42122011 &  \tc{0.0}{2.6}{0.0}{0}        &  \tc{5.6}{4.4}{2.7}{4}        &  \tc{0.0}{2.6}{0.0}{0}        &  \tc{0.0}{2.6}{0.0}{0}        \\
    \zmumu &  42112011 &  \tc{215.4}{9.1}{9.0}{1284}   &  \tc{198.4}{8.6}{8.5}{1183}   &  \tc{443.0}{16.4}{16.3}{2641} &  \tc{126.1}{6.2}{6.1}{752}    \\
   HARDQCD &  49001000 &  \tc{0.0}{12047}{0.0}{0}      &  \tc{6544}{15048}{5415}{1}    &  \tc{45808}{24688}{16916}{7}  &  \tc{0.0}{12047}{0.0}{0}      \\
    \ttbar &  41900006 &  \tc{2.8}{0.2}{0.2}{375}      &  \tc{3.8}{0.2}{0.2}{514}      &  \tc{8.7}{0.4}{0.4}{1183}     &  \tc{3.3}{0.2}{0.2}{454}      \\
    \ttbar &  41900007 &  \tc{2.8}{0.1}{0.1}{852}      &  \tc{3.8}{0.2}{0.2}{1139}     &  \tc{7.5}{0.3}{0.3}{2273}     &  \tc{3.0}{0.1}{0.1}{899}      \\
    \ttbar &  41900010 &  \tc{28.4}{5.1}{5.1}{9165}    &  \tc{18.4}{3.3}{3.3}{5919}    &  \tc{46.0}{8.3}{8.3}{14843}   &  \tc{27.2}{4.9}{4.9}{8762}    \\
       \we &  42321000 &  \tc{0.0}{1.7}{0.0}{0}        &  \tc{0.0}{1.7}{0.0}{0}        &  \tc{0.0}{1.7}{0.0}{0}        &  \tc{0.0}{1.7}{0.0}{0}        \\
    \wejet &  42321010 &  \tc{0.0}{6.4}{0.0}{0}        &  \tc{0.0}{6.4}{0.0}{0}        &  \tc{0.0}{6.4}{0.0}{0}        &  \tc{0.0}{6.4}{0.0}{0}        \\
   \wmujet &  42311011 &  \tc{62.5}{7.1}{6.5}{102}     &  \tc{478.4}{23.8}{23.3}{781}  &  \tc{1728}{66.0}{65.7}{2821}  &  \tc{491.9}{24.2}{23.8}{803}  \\
 \wmumujet &  42311012 &  \tc{56.0}{1.6}{1.5}{2017}    &  \tc{0.0}{0.1}{0.0}{0}        &  \tc{0.0}{0.1}{0.0}{0}        &  \tc{0.0}{0.1}{0.0}{0}        \\
  \wtaujet &  42300010 &  \tc{8.5}{8.3}{4.6}{3}        &  \tc{14.1}{9.6}{6.1}{5}       &  \tc{152.8}{24.3}{21.3}{54}   &  \tc{11.3}{9.0}{5.4}{4}       \\
      \zbb &  42150000 &  \tc{1.5}{0.6}{0.4}{13}       &  \tc{1.8}{0.6}{0.5}{15}       &  \tc{6.4}{1.0}{0.9}{54}       &  \tc{1.4}{0.5}{0.4}{12}       \\
   \zmujet &  42112022 &  \tc{290.3}{11.6}{11.5}{1790} &  \tc{243.7}{10.1}{10.0}{1503} &  \tc{242.6}{10.1}{10.0}{1496} &  \tc{95.2}{5.1}{5.0}{587}     \\
  \ztaujet &  42100020 &  \tc{153.7}{8.7}{8.4}{499}    &  \tc{358.7}{15.6}{15.4}{1165} &  \tc{748.6}{28.2}{28.0}{2431} &  \tc{123.5}{7.6}{7.3}{401}    \\
  \ztautau &  42100000 &  \tc{82.8}{4.0}{3.9}{535}     &  \tc{165.0}{6.0}{5.9}{1066}   &  \tc{314.1}{9.2}{9.1}{2029}   &  \tc{66.9}{3.6}{3.4}{432}     \\
\midrule
      Data &           &                          1329 &                          4037 &                         24155 &                          4444 \\
\bottomrule
\end{tabular}
