\begin{tabular}{llll}
\toprule
   Process &        ID &                        \dmumu &                          \dee \\
\midrule
  \ztautau &  42100000 &  \tc{0.0}{0.3}{0.0}{0}        &  \tc{0.0}{0.3}{0.0}{0}        \\
    \zmumu &  42112011 &  \tc{0.3}{0.4}{0.2}{2}        &  \tc{0.0}{0.3}{0.0}{0}        \\
      \zee &  42122011 &  \tc{0.0}{2.6}{0.0}{0}        &  \tc{1.4}{3.2}{1.2}{1}        \\
           &  42122001 &  \tc{0.0}{0.4}{0.0}{0}        &  \tc{2.5}{1.0}{0.7}{11}       \\
      \zbb &  42150000 &  \tc{0.0}{0.2}{0.0}{0}        &  \tc{0.0}{0.2}{0.0}{0}        \\
  \wtaujet &  42300010 &  \tc{0.0}{5.2}{0.0}{0}        &  \tc{0.0}{5.2}{0.0}{0}        \\
   \wmujet &  42311011 &  \tc{0.0}{1.1}{0.0}{0}        &  \tc{0.0}{1.1}{0.0}{0}        \\
       \we &  42321000 &  \tc{0.0}{1.7}{0.0}{0}        &  \tc{0.0}{1.7}{0.0}{0}        \\
    \wejet &  42321010 &  \tc{0.0}{6.4}{0.0}{0}        &  \tc{0.0}{6.4}{0.0}{0}        \\
 \wmumujet &  42311012 &  \tc{0.0}{0.1}{0.0}{0}        &  \tc{0.0}{0.1}{0.0}{0}        \\
  \ztaujet &  42100020 &  \tc{0.0}{0.6}{0.0}{0}        &  \tc{0.0}{0.6}{0.0}{0}        \\
   \zmujet &  42112022 &  \tc{0.0}{0.3}{0.0}{0}        &  \tc{0.0}{0.3}{0.0}{0}        \\
   \ccbare &  49021004 &  \tc{0.0}{0.9}{0.0}{0}        &  \tc{0.0}{0.9}{0.0}{0}        \\
  \ccbarmu &  49011004 &  \tc{0.0}{0.9}{0.0}{0}        &  \tc{0.0}{0.9}{0.0}{0}        \\
   \bbbare &  49021005 &  \tc{0.0}{4.8}{0.0}{0}        &  \tc{0.0}{4.8}{0.0}{0}        \\
  \bbbarmu &  49011005 &  \tc{0.0}{4.8}{0.0}{0}        &  \tc{0.0}{4.7}{0.0}{0}        \\
    \ttbar &  41900006 &  \tc{0.0}{0.0}{0.0}{0}        &  \tc{0.0}{0.0}{0.0}{0}        \\
           &  41900007 &  \tc{0.0}{0.0}{0.0}{0}        &  \tc{0.0}{0.0}{0.0}{1}        \\
           &  41900010 &  \tc{0.0}{0.0}{0.0}{5}        &  \tc{0.0}{0.0}{0.0}{0}        \\
     \wwll &  41922002 &  \tc{0.0}{0.0}{0.0}{0}        &  \tc{0.0}{0.0}{0.0}{0}        \\
     \wwlx &  42021000 &  \tc{0.0}{0.0}{0.0}{0}        &  \tc{0.0}{0.0}{0.0}{0}        \\
     \wzlx &  42021001 &  \tc{0.0}{0.0}{0.0}{0}        &  \tc{0.0}{0.0}{0.0}{0}        \\
\midrule
      Data &           &                            18 &                            31 \\
\bottomrule
\end{tabular}
